{
  "content": [
    {
      "productId": "f133d126-6cb1-4759-af63-9972f106a51d",
      "productName": "Test",
      "productDescription": "Test2",
      "brandId": null,
      "brandName": null,
      "stock": 0,
      "price": 1.00,
      "smallImageUrl": "https://github.com/1.jpg",
      "bigImageUrl": "https://github.com/2.jpg",
      "discountId": null,
      "createdAt": "2023-01-05T09:50:06.912024"
    }
  ],
  "totalPages": 2,
  "totalElements": 2,
  "number": 0
}